{
  "head": {
    "jquery": {
      "js": [
        "https://cdnjs.cloudflare.com/ajax/libs/jquery/3.3.1/jquery.min.js"
      ]
    },
    "bootstrap": {
      "css": [
        "https://cdnjs.cloudflare.com/ajax/libs/twitter-bootstrap/4.1.3/css/bootstrap.min.css"
      ],
      "js": [
        "https://cdnjs.cloudflare.com/ajax/libs/twitter-bootstrap/4.1.3/js/bootstrap.min.js"
      ]
    },
    "popper": {
      "js": [
        "https://cdnjs.cloudflare.com/ajax/libs/popper.js/1.14.3/umd/popper.min.js"
      ]
    },
    "owl-carousel": {
      "css": [
        "https://cdnjs.cloudflare.com/ajax/libs/OwlCarousel2/2.3.4/assets/owl.carousel.min.css"
      ],
      "js": [
        "https://cdnjs.cloudflare.com/ajax/libs/OwlCarousel2/2.3.4/owl.carousel.min.js"
      ]
    },
    "slick-carousel": {
      "css": [
        "https://cdnjs.cloudflare.com/ajax/libs/slick-carousel/1.9.0/slick.min.css"
      ],
      "js": [
        "https://cdnjs.cloudflare.com/ajax/libs/slick-carousel/1.9.0/slick.min.js"
      ]
    },
    "jquery-ui": {
      "css": [
        "https://cdnjs.cloudflare.com/ajax/libs/jqueryui/1.12.1/themes/base/jquery-ui.css"
      ],
      "js": [
        "https://cdnjs.cloudflare.com/ajax/libs/jqueryui/1.12.1/jquery-ui.js"
      ]
    },
    "bootstrap-datepicker": {
      "css": [
        "https://cdnjs.cloudflare.com/ajax/libs/bootstrap-datepicker/1.8.0/css/bootstrap-datepicker.min.css",
        "https://cdnjs.cloudflare.com/ajax/libs/bootstrap-datepicker/1.8.0/css/bootstrap-datepicker.standalone.min.css"
      ],
      "js": [
        "https://cdnjs.cloudflare.com/ajax/libs/bootstrap-datepicker/1.8.0/js/bootstrap-datepicker.min.js"
      ]
    },
    "clockpicker": {
      "css": [
        "https://cdnjs.cloudflare.com/ajax/libs/clockpicker/0.0.7/bootstrap-clockpicker.min.css"
      ],
      "js": [
        "https://cdnjs.cloudflare.com/ajax/libs/clockpicker/0.0.7/bootstrap-clockpicker.min.js"
      ]
    },
    "photoswipe": {
      "css": [
        "https://cdnjs.cloudflare.com/ajax/libs/photoswipe/4.1.2/photoswipe.min.css",
        "https://cdnjs.cloudflare.com/ajax/libs/photoswipe/4.1.2/default-skin/default-skin.min.css"
      ],
      "js": [
        "https://cdnjs.cloudflare.com/ajax/libs/photoswipe/4.1.2/photoswipe.min.js",
        "https://cdnjs.cloudflare.com/ajax/libs/photoswipe/4.1.2/photoswipe-ui-default.min.js"
      ]
    },
    "moment": {
      "js": [
        "https://cdnjs.cloudflare.com/ajax/libs/moment.js/2.22.2/moment.min.js"
      ]
    },
    "underscore": {
      "js": [
        "https://cdnjs.cloudflare.com/ajax/libs/underscore.js/1.9.1/underscore-min.js"
      ]
    },
    "clndr": {
      "js": [
        "https://cdnjs.cloudflare.com/ajax/libs/clndr/1.4.7/clndr.min.js"
      ]
    },
    "fontawesome": {
      "css": [
        "https://cdnjs.cloudflare.com/ajax/libs/font-awesome/4.7.0/css/font-awesome.min.css"
      ]
    },
    "animate": {
      "css": [
        "https://cdnjs.cloudflare.com/ajax/libs/animate.css/3.7.0/animate.min.css"
      ]
    }
  }
}
